%YAML 1.1
%TAG !u! tag:unity3d.com,2011:
--- !u!1 &1226657042438832413
GameObject:
  m_ObjectHideFlags: 0
  m_CorrespondingSourceObject: {fileID: 0}
  m_PrefabInstance: {fileID: 0}
  m_PrefabAsset: {fileID: 0}
  serializedVersion: 6
  m_Component:
  - component: {fileID: 8528300210112639464}
  - component: {fileID: 1093482588207691983}
  - component: {fileID: 8365266508392641162}
  m_Layer: 31
  m_Name: Layer1
  m_TagString: Untagged
  m_Icon: {fileID: 0}
  m_NavMeshLayer: 0
  m_StaticEditorFlags: 0
  m_IsActive: 1
--- !u!4 &8528300210112639464
Transform:
  m_ObjectHideFlags: 0
  m_CorrespondingSourceObject: {fileID: 0}
  m_PrefabInstance: {fileID: 0}
  m_PrefabAsset: {fileID: 0}
  m_GameObject: {fileID: 1226657042438832413}
  m_LocalRotation: {x: -0, y: -0, z: -0, w: 1}
  m_LocalPosition: {x: 0, y: 0, z: 0}
  m_LocalScale: {x: 1, y: 1, z: 1}
  m_Children: []
  m_Father: {fileID: 497403671723912959}
  m_RootOrder: 0
  m_LocalEulerAnglesHint: {x: 0, y: 0, z: 0}
--- !u!1839735485 &1093482588207691983
Tilemap:
  m_ObjectHideFlags: 0
  m_CorrespondingSourceObject: {fileID: 0}
  m_PrefabInstance: {fileID: 0}
  m_PrefabAsset: {fileID: 0}
  m_GameObject: {fileID: 1226657042438832413}
  m_Enabled: 1
  m_Tiles:
  - first: {x: -5, y: -10, z: 0}
    second:
      serializedVersion: 2
      m_TileIndex: 6
      m_TileSpriteIndex: 15
      m_TileMatrixIndex: 0
      m_TileColorIndex: 0
      m_TileObjectToInstantiateIndex: 65535
      m_AllTileFlags: 1073741825
  - first: {x: -7, y: -8, z: 0}
    second:
      serializedVersion: 2
      m_TileIndex: 9
      m_TileSpriteIndex: 8
      m_TileMatrixIndex: 0
      m_TileColorIndex: 0
      m_TileObjectToInstantiateIndex: 65535
      m_AllTileFlags: 1073741825
  - first: {x: -5, y: -8, z: 0}
    second:
      serializedVersion: 2
      m_TileIndex: 10
      m_TileSpriteIndex: 9
      m_TileMatrixIndex: 0
      m_TileColorIndex: 0
      m_TileObjectToInstantiateIndex: 65535
      m_AllTileFlags: 1073741825
  - first: {x: -3, y: -8, z: 0}
    second:
      serializedVersion: 2
      m_TileIndex: 8
      m_TileSpriteIndex: 7
      m_TileMatrixIndex: 0
      m_TileColorIndex: 0
      m_TileObjectToInstantiateIndex: 65535
      m_AllTileFlags: 1073741825
  - first: {x: -5, y: -6, z: 0}
    second:
      serializedVersion: 2
      m_TileIndex: 7
      m_TileSpriteIndex: 6
      m_TileMatrixIndex: 0
      m_TileColorIndex: 0
      m_TileObjectToInstantiateIndex: 65535
      m_AllTileFlags: 1073741825
  - first: {x: -4, y: -4, z: 0}
    second:
      serializedVersion: 2
      m_TileIndex: 11
      m_TileSpriteIndex: 10
      m_TileMatrixIndex: 0
      m_TileColorIndex: 0
      m_TileObjectToInstantiateIndex: 65535
      m_AllTileFlags: 1073741825
  - first: {x: 0, y: -4, z: 0}
    second:
      serializedVersion: 2
      m_TileIndex: 12
      m_TileSpriteIndex: 11
      m_TileMatrixIndex: 0
      m_TileColorIndex: 0
      m_TileObjectToInstantiateIndex: 65535
      m_AllTileFlags: 1073741825
  - first: {x: -7, y: -3, z: 0}
    second:
      serializedVersion: 2
      m_TileIndex: 3
      m_TileSpriteIndex: 5
      m_TileMatrixIndex: 0
      m_TileColorIndex: 0
      m_TileObjectToInstantiateIndex: 65535
      m_AllTileFlags: 1073741825
  - first: {x: -7, y: -2, z: 0}
    second:
      serializedVersion: 2
      m_TileIndex: 5
      m_TileSpriteIndex: 4
      m_TileMatrixIndex: 0
      m_TileColorIndex: 0
      m_TileObjectToInstantiateIndex: 65535
      m_AllTileFlags: 1073741825
  - first: {x: -6, y: -2, z: 0}
    second:
      serializedVersion: 2
      m_TileIndex: 4
      m_TileSpriteIndex: 3
      m_TileMatrixIndex: 0
      m_TileColorIndex: 0
      m_TileObjectToInstantiateIndex: 65535
      m_AllTileFlags: 1073741825
  - first: {x: -5, y: -2, z: 0}
    second:
      serializedVersion: 2
      m_TileIndex: 15
      m_TileSpriteIndex: 0
      m_TileMatrixIndex: 0
      m_TileColorIndex: 0
      m_TileObjectToInstantiateIndex: 65535
      m_AllTileFlags: 1073741826
  - first: {x: -4, y: -2, z: 0}
    second:
      serializedVersion: 2
      m_TileIndex: 13
      m_TileSpriteIndex: 14
      m_TileMatrixIndex: 0
      m_TileColorIndex: 3
      m_TileObjectToInstantiateIndex: 65535
      m_AllTileFlags: 2147483649
  - first: {x: -3, y: -2, z: 0}
    second:
      serializedVersion: 2
      m_TileIndex: 17
      m_TileSpriteIndex: 17
      m_TileMatrixIndex: 0
      m_TileColorIndex: 0
      m_TileObjectToInstantiateIndex: 65535
      m_AllTileFlags: 1073741826
  - first: {x: -6, y: -1, z: 0}
    second:
      serializedVersion: 2
      m_TileIndex: 22
      m_TileSpriteIndex: 22
      m_TileMatrixIndex: 0
      m_TileColorIndex: 0
      m_TileObjectToInstantiateIndex: 65535
      m_AllTileFlags: 1073741825
  - first: {x: -5, y: -1, z: 0}
    second:
      serializedVersion: 2
      m_TileIndex: 14
      m_TileSpriteIndex: 13
      m_TileMatrixIndex: 0
      m_TileColorIndex: 0
      m_TileObjectToInstantiateIndex: 65535
      m_AllTileFlags: 1073741825
  - first: {x: -4, y: -1, z: 0}
    second:
      serializedVersion: 2
      m_TileIndex: 16
      m_TileSpriteIndex: 12
      m_TileMatrixIndex: 0
      m_TileColorIndex: 0
      m_TileObjectToInstantiateIndex: 65535
      m_AllTileFlags: 1073741826
  - first: {x: -2, y: 0, z: 0}
    second:
      serializedVersion: 2
      m_TileIndex: 0
      m_TileSpriteIndex: 16
      m_TileMatrixIndex: 0
      m_TileColorIndex: 0
      m_TileObjectToInstantiateIndex: 65535
      m_AllTileFlags: 1073741825
  - first: {x: -7, y: 1, z: 0}
    second:
      serializedVersion: 2
      m_TileIndex: 2
      m_TileSpriteIndex: 2
      m_TileMatrixIndex: 0
      m_TileColorIndex: 0
      m_TileObjectToInstantiateIndex: 65535
      m_AllTileFlags: 1073741825
  - first: {x: -6, y: 1, z: 0}
    second:
      serializedVersion: 2
      m_TileIndex: 1
      m_TileSpriteIndex: 1
      m_TileMatrixIndex: 0
      m_TileColorIndex: 0
      m_TileObjectToInstantiateIndex: 65535
      m_AllTileFlags: 1073741825
  - first: {x: -5, y: 1, z: 0}
    second:
      serializedVersion: 2
      m_TileIndex: 18
      m_TileSpriteIndex: 18
      m_TileMatrixIndex: 0
      m_TileColorIndex: 0
      m_TileObjectToInstantiateIndex: 65535
      m_AllTileFlags: 1073741827
  - first: {x: -4, y: 1, z: 0}
    second:
      serializedVersion: 2
      m_TileIndex: 19
      m_TileSpriteIndex: 19
      m_TileMatrixIndex: 0
      m_TileColorIndex: 0
      m_TileObjectToInstantiateIndex: 65535
      m_AllTileFlags: 1073741825
  - first: {x: -3, y: 1, z: 0}
    second:
      serializedVersion: 2
      m_TileIndex: 20
      m_TileSpriteIndex: 20
      m_TileMatrixIndex: 0
      m_TileColorIndex: 0
      m_TileObjectToInstantiateIndex: 65535
      m_AllTileFlags: 1073741825
  - first: {x: -7, y: 2, z: 0}
    second:
      serializedVersion: 2
      m_TileIndex: 28
      m_TileSpriteIndex: 28
      m_TileMatrixIndex: 0
      m_TileColorIndex: 0
      m_TileObjectToInstantiateIndex: 65535
      m_AllTileFlags: 1073741825
  - first: {x: -4, y: 2, z: 0}
    second:
      serializedVersion: 2
      m_TileIndex: 21
      m_TileSpriteIndex: 21
      m_TileMatrixIndex: 0
      m_TileColorIndex: 0
      m_TileObjectToInstantiateIndex: 65535
      m_AllTileFlags: 1073741825
  - first: {x: -3, y: 2, z: 0}
    second:
      serializedVersion: 2
      m_TileIndex: 27
      m_TileSpriteIndex: 27
      m_TileMatrixIndex: 0
      m_TileColorIndex: 0
      m_TileObjectToInstantiateIndex: 65535
      m_AllTileFlags: 1073741825
  - first: {x: -7, y: 5, z: 0}
    second:
      serializedVersion: 2
      m_TileIndex: 23
      m_TileSpriteIndex: 23
      m_TileMatrixIndex: 0
      m_TileColorIndex: 0
      m_TileObjectToInstantiateIndex: 65535
      m_AllTileFlags: 1073741825
  - first: {x: -6, y: 5, z: 0}
    second:
      serializedVersion: 2
      m_TileIndex: 24
      m_TileSpriteIndex: 24
      m_TileMatrixIndex: 0
      m_TileColorIndex: 0
      m_TileObjectToInstantiateIndex: 65535
      m_AllTileFlags: 1073741825
  - first: {x: -5, y: 5, z: 0}
    second:
      serializedVersion: 2
      m_TileIndex: 25
      m_TileSpriteIndex: 25
      m_TileMatrixIndex: 0
      m_TileColorIndex: 0
      m_TileObjectToInstantiateIndex: 65535
      m_AllTileFlags: 1073741825
  - first: {x: -4, y: 5, z: 0}
    second:
      serializedVersion: 2
      m_TileIndex: 26
      m_TileSpriteIndex: 26
      m_TileMatrixIndex: 0
      m_TileColorIndex: 0
      m_TileObjectToInstantiateIndex: 65535
      m_AllTileFlags: 1073741825
  - first: {x: -3, y: 5, z: 0}
    second:
      serializedVersion: 2
      m_TileIndex: 29
      m_TileSpriteIndex: 29
      m_TileMatrixIndex: 0
      m_TileColorIndex: 0
      m_TileObjectToInstantiateIndex: 65535
      m_AllTileFlags: 1073741825
  m_AnimatedTiles: {}
  m_TileAssetArray:
  - m_RefCount: 1
    m_Data: {fileID: 11400000, guid: 689da1191ba9b3d49aa6af288bfbc637, type: 2}
  - m_RefCount: 1
    m_Data: {fileID: 11400000, guid: 8f2ad3ec6900a2c4fa3e2e60097f3ff2, type: 2}
  - m_RefCount: 1
    m_Data: {fileID: 11400000, guid: eec18a35a57b9e24291ef4e905e25bfe, type: 2}
  - m_RefCount: 1
    m_Data: {fileID: 11400000, guid: 8f5e1dce9e48a714894aea565215c18c, type: 2}
  - m_RefCount: 1
    m_Data: {fileID: 11400000, guid: f1adce4e3e7220e42a67114d672a3d7e, type: 2}
  - m_RefCount: 1
    m_Data: {fileID: 11400000, guid: 843653f4363756540bac4bdf1d7be01a, type: 2}
  - m_RefCount: 1
    m_Data: {fileID: 11400000, guid: 0d5ca8bc2c96f26498c7d8b3b7193735, type: 2}
  - m_RefCount: 1
    m_Data: {fileID: 11400000, guid: 99d010e6dbe86a341b128041631328a8, type: 2}
  - m_RefCount: 1
    m_Data: {fileID: 11400000, guid: 9c01b62168d1ba049bc40fba4ea3b090, type: 2}
  - m_RefCount: 1
    m_Data: {fileID: 11400000, guid: e88c321f6d2bc4643b6a71bb4d025d05, type: 2}
  - m_RefCount: 1
    m_Data: {fileID: 11400000, guid: 05d0824e6b7520a4fb4f10d93cccb86d, type: 2}
  - m_RefCount: 1
    m_Data: {fileID: 11400000, guid: 4c68f5eaeae379342a6093cc049fa25e, type: 2}
  - m_RefCount: 1
    m_Data: {fileID: 11400000, guid: 100ebebd38ec48243b066c9fb14fbf36, type: 2}
  - m_RefCount: 1
    m_Data: {fileID: 11400000, guid: 73f020e20cb99c648bd0d939599451e1, type: 2}
  - m_RefCount: 1
    m_Data: {fileID: 11400000, guid: e1ac4173d14e14749b0871f136146c59, type: 2}
  - m_RefCount: 1
    m_Data: {fileID: 11400000, guid: 55557fd4697ceaa4c9b675d6f9dfec9a, type: 2}
  - m_RefCount: 1
    m_Data: {fileID: 11400000, guid: e1f0744167f2e0143a3fa750f488690b, type: 2}
  - m_RefCount: 1
    m_Data: {fileID: 11400000, guid: 6d83a56d4fa3224489292e4eb0757f8c, type: 2}
  - m_RefCount: 1
    m_Data: {fileID: 11400000, guid: b4292524c23666a4b968f4565ada4619, type: 2}
  - m_RefCount: 1
    m_Data: {fileID: 11400000, guid: 37be264bd452ce24da371bd000c95cfe, type: 2}
  - m_RefCount: 1
    m_Data: {fileID: 11400000, guid: a275958871c242e4da5d6d64cd35350c, type: 2}
  - m_RefCount: 1
    m_Data: {fileID: 11400000, guid: 1565a4b22e3c22449a2b841545a1078e, type: 2}
  - m_RefCount: 1
    m_Data: {fileID: 11400000, guid: df4a0ed980fa17942ad8dc8026be1ff2, type: 2}
  - m_RefCount: 1
    m_Data: {fileID: 11400000, guid: 334949df69f7c3442ae3840cac2b35f8, type: 2}
  - m_RefCount: 1
    m_Data: {fileID: 11400000, guid: 4e4892e32dab7944f96ec8697a0eb26a, type: 2}
  - m_RefCount: 1
    m_Data: {fileID: 11400000, guid: 8d51934046a02fb43b45ef489b52c5f3, type: 2}
  - m_RefCount: 1
    m_Data: {fileID: 11400000, guid: 8a50967ef6340744bb48d23391849971, type: 2}
  - m_RefCount: 1
    m_Data: {fileID: 11400000, guid: 956e4105e92ce284f94c1c8a3dea1b73, type: 2}
  - m_RefCount: 1
    m_Data: {fileID: 11400000, guid: 60c0a97990c8c834288de73ffcbd4750, type: 2}
  - m_RefCount: 1
    m_Data: {fileID: 11400000, guid: 96c4227c03e060249b89b42bea542271, type: 2}
  m_TileSpriteArray:
  - m_RefCount: 1
    m_Data: {fileID: -4572538427254589059, guid: 7c91613980f694c419e768438dec7265,
      type: 3}
  - m_RefCount: 1
    m_Data: {fileID: 21300000, guid: d519439143c77ce438a37376c982c240, type: 3}
  - m_RefCount: 1
    m_Data: {fileID: -1232624061788598070, guid: 7c91613980f694c419e768438dec7265,
      type: 3}
  - m_RefCount: 1
    m_Data: {fileID: 7202327779827747778, guid: 7c91613980f694c419e768438dec7265,
      type: 3}
  - m_RefCount: 1
    m_Data: {fileID: -3275113892079990999, guid: 7c91613980f694c419e768438dec7265,
      type: 3}
  - m_RefCount: 1
    m_Data: {fileID: -3949595928012039785, guid: 7c91613980f694c419e768438dec7265,
      type: 3}
  - m_RefCount: 1
    m_Data: {fileID: 2604204732386685818, guid: 7c91613980f694c419e768438dec7265,
      type: 3}
  - m_RefCount: 1
    m_Data: {fileID: -2603065412019823373, guid: 7c91613980f694c419e768438dec7265,
      type: 3}
  - m_RefCount: 1
    m_Data: {fileID: 7775056682446313461, guid: 7c91613980f694c419e768438dec7265,
      type: 3}
  - m_RefCount: 1
    m_Data: {fileID: -7689930896215354821, guid: 7c91613980f694c419e768438dec7265,
      type: 3}
  - m_RefCount: 1
    m_Data: {fileID: 8226360518062698576, guid: 7c91613980f694c419e768438dec7265,
      type: 3}
  - m_RefCount: 1
    m_Data: {fileID: -554608186212516958, guid: 7c91613980f694c419e768438dec7265,
      type: 3}
  - m_RefCount: 1
    m_Data: {fileID: -2461815519312801541, guid: 7c91613980f694c419e768438dec7265,
      type: 3}
  - m_RefCount: 1
    m_Data: {fileID: 4576271349042812166, guid: 7c91613980f694c419e768438dec7265,
      type: 3}
  - m_RefCount: 1
    m_Data: {fileID: 21300000, guid: a8dc37bac240766499da7a78a611e389, type: 3}
  - m_RefCount: 1
    m_Data: {fileID: -8996044890762755135, guid: 7c91613980f694c419e768438dec7265,
      type: 3}
  - m_RefCount: 1
    m_Data: {fileID: -4892740800174613157, guid: 7c91613980f694c419e768438dec7265,
      type: 3}
  - m_RefCount: 1
    m_Data: {fileID: 21300000, guid: 13086fb91809e624b9069db281095249, type: 3}
  - m_RefCount: 1
    m_Data: {fileID: 21300000, guid: 8d5d0c3cece0a564bb16975778a1d0c0, type: 3}
  - m_RefCount: 1
    m_Data: {fileID: 5823580535160476979, guid: 7c91613980f694c419e768438dec7265,
      type: 3}
  - m_RefCount: 1
    m_Data: {fileID: 4372775302940305899, guid: 7c91613980f694c419e768438dec7265,
      type: 3}
  - m_RefCount: 1
    m_Data: {fileID: 912645009985740689, guid: 7c91613980f694c419e768438dec7265, type: 3}
  - m_RefCount: 1
    m_Data: {fileID: 21300000, guid: 2c8e0b0e823ee804986ef8b06e200826, type: 3}
  - m_RefCount: 1
    m_Data: {fileID: -3938891626738463426, guid: 59b33d55b540dfb4b8e7e093c2fb6b50,
      type: 3}
  - m_RefCount: 1
    m_Data: {fileID: 6610379306505157424, guid: 682f47eb1eedb32438428082c20b8a99,
      type: 3}
  - m_RefCount: 1
    m_Data: {fileID: -3638452437159074076, guid: 682f47eb1eedb32438428082c20b8a99,
      type: 3}
  - m_RefCount: 1
    m_Data: {fileID: 5620601010649040209, guid: 682f47eb1eedb32438428082c20b8a99,
      type: 3}
  - m_RefCount: 1
    m_Data: {fileID: -4251768712096742070, guid: a75e3b7deb1c56042b28f0f08c1afbd3,
      type: 3}
  - m_RefCount: 1
    m_Data: {fileID: 21300000, guid: 7ab125afd7ead244dac6f490e9e49a78, type: 3}
  - m_RefCount: 1
    m_Data: {fileID: -6771480436372825806, guid: 59b33d55b540dfb4b8e7e093c2fb6b50,
      type: 3}
  m_TileMatrixArray:
  - m_RefCount: 30
    m_Data:
      e00: 1
      e01: 0
      e02: 0
      e03: 0
      e10: 0
      e11: 1
      e12: 0
      e13: 0
      e20: 0
      e21: 0
      e22: 1
      e23: 0
      e30: 0
      e31: 0
      e32: 0
      e33: 1
  m_TileColorArray:
  - m_RefCount: 29
    m_Data: {r: 1, g: 1, b: 1, a: 1}
  - m_RefCount: 0
    m_Data: {r: 0, g: 0, b: 0, a: 0}
  - m_RefCount: 0
    m_Data: {r: -6.962967, g: -6.962967, b: -6.962967, a: -6.962967}
  - m_RefCount: 1
    m_Data: {r: 0.8773585, g: 0.21933962, b: 0.21933962, a: 0.33333334}
  m_TileObjectToInstantiateArray: []
  m_AnimationFrameRate: 1
  m_Color: {r: 1, g: 1, b: 1, a: 1}
  m_Origin: {x: -8, y: -10, z: 0}
  m_Size: {x: 11, y: 17, z: 1}
  m_TileAnchor: {x: 0.5, y: 0.5, z: 0}
  m_TileOrientation: 0
  m_TileOrientationMatrix:
    e00: 1
    e01: 0
    e02: 0
    e03: 0
    e10: 0
    e11: 1
    e12: 0
    e13: 0
    e20: 0
    e21: 0
    e22: 1
    e23: 0
    e30: 0
    e31: 0
    e32: 0
    e33: 1
--- !u!483693784 &8365266508392641162
TilemapRenderer:
  m_ObjectHideFlags: 0
  m_CorrespondingSourceObject: {fileID: 0}
  m_PrefabInstance: {fileID: 0}
  m_PrefabAsset: {fileID: 0}
  m_GameObject: {fileID: 1226657042438832413}
  m_Enabled: 0
  m_CastShadows: 0
  m_ReceiveShadows: 0
  m_DynamicOccludee: 0
  m_MotionVectors: 1
  m_LightProbeUsage: 0
  m_ReflectionProbeUsage: 0
  m_RayTracingMode: 0
  m_RenderingLayerMask: 1
  m_RendererPriority: 0
  m_Materials:
  - {fileID: 10754, guid: 0000000000000000f000000000000000, type: 0}
  m_StaticBatchInfo:
    firstSubMesh: 0
    subMeshCount: 0
  m_StaticBatchRoot: {fileID: 0}
  m_ProbeAnchor: {fileID: 0}
  m_LightProbeVolumeOverride: {fileID: 0}
  m_ScaleInLightmap: 1
  m_ReceiveGI: 1
  m_PreserveUVs: 0
  m_IgnoreNormalsForChartDetection: 0
  m_ImportantGI: 0
  m_StitchLightmapSeams: 1
  m_SelectedEditorRenderState: 0
  m_MinimumChartSize: 4
  m_AutoUVMaxDistance: 0.5
  m_AutoUVMaxAngle: 89
  m_LightmapParameters: {fileID: 0}
  m_SortingLayerID: 0
  m_SortingLayer: 0
  m_SortingOrder: 0
  m_ChunkSize: {x: 32, y: 32, z: 32}
  m_ChunkCullingBounds: {x: 1, y: 1.048727, z: 0}
  m_MaxChunkCount: 16
  m_MaxFrameAge: 16
  m_SortOrder: 0
  m_Mode: 0
  m_DetectChunkCullingBounds: 0
  m_MaskInteraction: 0
--- !u!1 &4329515511602637195
GameObject:
  m_ObjectHideFlags: 0
  m_CorrespondingSourceObject: {fileID: 0}
  m_PrefabInstance: {fileID: 0}
  m_PrefabAsset: {fileID: 0}
  serializedVersion: 6
  m_Component:
  - component: {fileID: 497403671723912959}
  - component: {fileID: 1993650053525090022}
  m_Layer: 31
  m_Name: Sample2_Env
  m_TagString: Untagged
  m_Icon: {fileID: 0}
  m_NavMeshLayer: 0
  m_StaticEditorFlags: 0
  m_IsActive: 1
--- !u!4 &497403671723912959
Transform:
  m_ObjectHideFlags: 0
  m_CorrespondingSourceObject: {fileID: 0}
  m_PrefabInstance: {fileID: 0}
  m_PrefabAsset: {fileID: 0}
  m_GameObject: {fileID: 4329515511602637195}
  m_LocalRotation: {x: 0, y: 0, z: 0, w: 1}
  m_LocalPosition: {x: 0, y: 0, z: 0}
  m_LocalScale: {x: 1, y: 1, z: 1}
  m_Children:
  - {fileID: 8528300210112639464}
  m_Father: {fileID: 0}
  m_RootOrder: 0
  m_LocalEulerAnglesHint: {x: 0, y: 0, z: 0}
--- !u!156049354 &1993650053525090022
Grid:
  m_ObjectHideFlags: 0
  m_CorrespondingSourceObject: {fileID: 0}
  m_PrefabInstance: {fileID: 0}
  m_PrefabAsset: {fileID: 0}
  m_GameObject: {fileID: 4329515511602637195}
  m_Enabled: 1
  m_CellSize: {x: 2, y: 1, z: 0}
  m_CellGap: {x: 0, y: 0, z: 0}
  m_CellLayout: 0
  m_CellSwizzle: 0
--- !u!114 &631367662953950636
MonoBehaviour:
  m_ObjectHideFlags: 0
  m_CorrespondingSourceObject: {fileID: 0}
  m_PrefabInstance: {fileID: 0}
  m_PrefabAsset: {fileID: 0}
  m_GameObject: {fileID: 0}
  m_Enabled: 1
  m_EditorHideFlags: 0
  m_Script: {fileID: 12395, guid: 0000000000000000e000000000000000, type: 0}
  m_Name: Palette Settings
  m_EditorClassIdentifier: 
  cellSizing: 0
