%YAML 1.1
%TAG !u! tag:unity3d.com,2011:
--- !u!114 &11400000
MonoBehaviour:
  m_ObjectHideFlags: 0
  m_CorrespondingSourceObject: {fileID: 0}
  m_PrefabInstance: {fileID: 0}
  m_PrefabAsset: {fileID: 0}
  m_GameObject: {fileID: 0}
  m_Enabled: 1
  m_EditorHideFlags: 0
  m_Script: {fileID: 11500000, guid: f6e4e4fc705376343a3e65b25d94f0e2, type: 3}
  m_Name: terrain_road1
  m_EditorClassIdentifier: 
  m_Sprites:
  - {fileID: 21300000, guid: e587ac852434c48469bb3c2a1c290bb8, type: 3}
  - {fileID: 21300000, guid: eda2940ade6aa7a41a7452e79ab5e412, type: 3}
  - {fileID: 21300000, guid: 28496a93693a06441adbe0362b1cf4fc, type: 3}
  - {fileID: 21300000, guid: 66b8b895a2b42954a9eb2bc180f4ea67, type: 3}
  - {fileID: 21300000, guid: af58b8295b3d26044a89746172206f5a, type: 3}
  - {fileID: 21300000, guid: 060226402f3a1034e84eb2bce50e1cad, type: 3}
  - {fileID: 21300000, guid: f7c77370167206b468f901337fdf396c, type: 3}
  - {fileID: 21300000, guid: 1bb1ef6d44286df44849bf9a55359ae8, type: 3}
  - {fileID: 21300000, guid: e3361003437644b4ea1ab611d7cfa91d, type: 3}
  - {fileID: 21300000, guid: 6e1f4b0d1090a83408a0141edad3bebe, type: 3}
  - {fileID: 21300000, guid: eb4a8257b0b42004e816352099b68fef, type: 3}
  - {fileID: 21300000, guid: 7e0c06b55bb71b740a04b1bb034a67e5, type: 3}
  - {fileID: 21300000, guid: 69273f711a9af4a4a852751255727f56, type: 3}
  - {fileID: 21300000, guid: ba523ce7a5e97664f9c759a37dab907d, type: 3}
  - {fileID: 21300000, guid: f95f97001fff91944b66a7b09bd822f2, type: 3}
