%YAML 1.1
%TAG !u! tag:unity3d.com,2011:
--- !u!1045 &1
EditorBuildSettings:
  m_ObjectHideFlags: 0
  serializedVersion: 2
  m_Scenes:
  - enabled: 1
    path: Assets/Menu/Scenes/Menu.unity
    guid: 99c105c222150b94b86776170c4081d1
  - enabled: 1
    path: Assets/Sample2/Scenes/ScenesS2_Init.unity
    guid: ab7a1b8de9273d344acc36d29f1dcbd1
  - enabled: 1
    path: Assets/Sample2/Scenes/ScenesS2_InMainTown.unity
    guid: 7776ea00368d94b4da466587cdf712ec
  - enabled: 1
    path: Assets/Sample2/Scenes/ScenesS2_InHouse.unity
    guid: 42877837df8bb254a9aa85e503b88c14
  - enabled: 1
    path: Assets/Sample2/Scenes/ScenesS2_InMonsterRoom.unity
    guid: 5691e47be5d12214385ab316566682f0
  - enabled: 1
    path: Assets/Sample1/Scenes/ScenesS1.unity
    guid: ce98410f823d7d14db3f8cae32d8dfeb
  m_configObjects: {}
